{
  "ABC.es": {
    "domain": "abc.es",
    "allow_cookies": 1,
    "block_regex": "(\\.evolok\\.net\\/|cdn\\.ampproject\\.org\\/v\\d\\/amp-access-.+\\.js)",
    "useragent": "googlebot",
    "amp_redirect": {
      "paywall": "div.voc-paywall"
    },
    "cs_code": [{
        "cond": "body#top",
        "rm_attrib": "id"
      }
    ]
  },
  "Architectural Digest": {
    "domain": "architecturaldigest.com",
    "remove_cookies_select_drop": ["pay_ent_smp", "pay_ent_usmp"],
    "block_regex": "(journey\\.architecturaldigest\\.com\\/(.+\\/)?build-.+\\.js|cdn\\.ampproject\\.org\\/v\\d\\/amp-subscriptions-.+\\.js)",
    "useragent": "googlebot",
    "amp_unhide": 1
  },
  "Handelszeitung.ch": {
    "allow_cookies": 1,
    "domain": "handelszeitung.ch",
    "useragent": "googlebot"
  },
  "Knack.be": {
    "domain": "knack.be",
    "allow_cookies": 1,
    "block_regex": "(\\.knack\\.be\\/js\\/responsive\\/rmg(Modal|Paywall)\\.js|\\.blueconic\\.net\\/)",
    "cs_code": [{
        "cond": "div[id*=\"wall-modal\"]",
        "rm_elem": 1,
        "elems": [{
            "cond": "div.article-body > p",
            "rm_elem": 1
          }, {
            "cond": "div.article-body > style",
            "rm_elem": 1
          }
        ]
      }
    ]
  },
  "Le Vif.be": {
    "domain": "levif.be",
    "allow_cookies": 1,
    "block_regex": "(\\.levif\\.be\\/js\\/responsive\\/rmg(Modal|Paywall)\\.js|\\.blueconic\\.net\\/)",
    "cs_code": [{
        "cond": "div[id*=\"wall-modal\"]",
        "rm_elem": 1,
        "elems": [{
            "cond": "div.article-body > p",
            "rm_elem": 1
          }, {
            "cond": "div.article-body > style",
            "rm_elem": 1
          }
        ]
      }
    ]
  },
  "NRC Handelsblad": {
    "domain": "nrc.nl",
    "remove_cookies_select_drop": ["counter"],
    "block_regex": "\\.nrc\\.nl\\/paywall-api\\/api\\/zephr"
  },
  "SOFREP": {
    "domain": "sofrep.com",
    "block_regex": "cdn\\.ampproject\\.org\\/v\\d\\/amp-access-.+\\.js",
    "amp_redirect": {
      "paywall": "div.fader"
    }
  },
  "The Japan Times": {
    "domain": "japantimes.co.jp",
    "block_regex": "cdn\\.cxense\\.com\\/",
    "remove_cookies_select_drop": ["xbc"]
  },
  "The Ken (not Southeast Asia)": {
    "domain": "the-ken.com",
    "allow_cookies": 1,
    "block_regex": "\\/the-ken\\.com\\/wp-content\\/.+\\/js\\/bootstrap\\.min\\.js"
  },
  "The Wall Street Journal": {
    "domain": "wsj.com",
    "allow_cookies": 1,
    "block_regex": "(cdn\\.cxense\\.com\\/|cdn\\.ampproject\\.org\\/v\\d\\/amp-(access|subscriptions)-.+\\.js)",
    "useragent": "googlebot",
    "amp_redirect": {
      "paywall": ".snippet-promotion, div#cx-snippet-overlay"
    }
  }
}
